
    {
      "Name": "Custom_Model_Infinite_Bag",
      "Transform": {
        "posX": 1.70360374E-06,
        "posY": 1.06121707,
        "posZ": -30.0,
        "rotX": -1.26189377E-07,
        "rotY": 180.00087,
        "rotZ": 6.80377E-07,
        "scaleX": 2.0,
        "scaleY": 2.0,
        "scaleZ": 2.0
      },
      "Nickname": "Lancer les dés",
      "Description": "",
      "GMNotes": "",
      "ColorDiffuse": {
        "r": 1.0,
        "g": 1.0,
        "b": 1.0
      },
      "Locked": false,
      "Grid": true,
      "Snap": true,
      "IgnoreFoW": false,
      "Autoraise": true,
      "Sticky": true,
      "Tooltip": true,
      "GridProjection": false,
      "HideWhenFaceDown": false,
      "Hands": false,
      "MaterialIndex": -1,
      "MeshIndex": -1,
      "CustomMesh": {
        "MeshURL": "http://cloud-3.steamusercontent.com/ugc/778483127940370293/2917A14A8160B8B35AB261446C61C2734388A8F1/",
        "DiffuseURL": "http://cloud-3.steamusercontent.com/ugc/778483127940370389/A219FD6F5F3558CA0FC89D61C04E76871320CC96/",
        "NormalURL": "",
        "ColliderURL": "",
        "Convex": true,
        "MaterialIndex": 1,
        "TypeIndex": 7,
        "CastShadows": true
      },
      "XmlUI": "",
      "LuaScript": "--Roll-O-Matic by MrStump\r\n\r\n--CUSTOMIZATION VARIABLES BEGIN HERE\r\n\r\n--Distance the dice are placed from the tool\r\nradius = 3.5\r\n--How high (relative to the tool) the dice are placed\r\nheight = 4\r\n--How many seconds after the dice come to rest before they are auto-cleaned\r\n--If you want cleanup with no delay after roll results, use 0\r\n--A value of -1 will cause them not to be cleaned up automatically\r\ncleanupAfterRoll = -1\r\n--If the results of the roll are printed, true or false\r\nprintRollResults = true\r\n--If the roll results are put into order or left as they are\r\n--Only applies to the printing of roll results, the dice are not impacted\r\norganizeRollResults = true\r\n\r\n--END OF CUSTOMIZATION VARIABLES\r\n\r\nfunction onSave()\r\n    local data_to_save = {da=diceActive, wd=watchingDice}\r\n    saved_data = JSON.encode(data_to_save)\r\n    return saved_data\r\nend\r\n\r\nfunction onLoad(saved_data)\r\n    if saved_data ~= \"\" then\r\n        --Set up information off of loaded_data\r\n        local loaded_data = JSON.decode(saved_data)\r\n        diceActive = loaded_data.da\r\n        watchingDice = loaded_data.wd\r\n    else\r\n        diceActive = {}\r\n        watchingDice = false\r\n    end\r\n\r\n    createButtons()\r\nend\r\n\r\n--Activated by button press, pulls dice and starts process\r\nfunction numberButtonPressed(num, color)\r\n    if watchingDice == false then\r\n        --Delete old dice if they exist\r\n        if #diceActive > 0 then\r\n            deleteCurrentDice()\r\n        end\r\n        watchingDice = true\r\n        math.randomseed(os.time())\r\n        local bagPos, bagRot = self.getPosition(), self.getRotation()\r\n        for i=1, num do\r\n            --Create Position\r\n            local pos = getRadialPosition(i, num, bagPos, bagRot)\r\n            --Create random rotation\r\n            local rot = randomRotation()\r\n            --Removes objects from bag\r\n            self.takeObject({\r\n                position=pos, rotation=rot,\r\n                callback=\"afterSpawn\", callback_owner=self, params={color=color, num=num}\r\n            })\r\n        end\r\n    else\r\n        --Error if you try to roll dice again before the first set finishes\r\n        broadcastToColor(\"Lancer en cours\", color, {0.8,0.2,0.2})\r\n    end\r\nend\r\n--Callback, runs after dice are spawned\r\nfunction afterSpawn(die, params)\r\n    table.insert(diceActive, die.getGUID())\r\n    if #diceActive == params.num then\r\n        self.setVar(\"colorForCoroutine\", params.color)\r\n        startLuaCoroutine(self, \"watchDice\")\r\n    end\r\nend\r\n\r\n--Coroutine, watching for all the dice to come to rest.\r\nfunction watchDice()\r\n    local color = self.getVar(\"colorForCoroutine\")\r\n    local startTime = os.time()\r\n    repeat\r\n        local restingCount = 0\r\n        for i, dieGUID in ipairs(diceActive) do\r\n            local die = getObjectFromGUID(dieGUID)\r\n            if not die or die.resting == true then\r\n                restingCount = restingCount + 1\r\n            end\r\n        end\r\n        coroutine.yield(0)\r\n    until restingCount == #diceActive or os.time() > startTime + 3\r\n    watchingDice = false\r\n    --Prints the results if printRollResults is enabled\r\n    if printRollResults == true then\r\n        formatRollResults(color)\r\n    end\r\n    --Automatically deletes the dice if cleanupAfterRoll is 0 or higher\r\n    if cleanupAfterRoll == 0 then\r\n        deleteCurrentDice()\r\n    elseif cleanupAfterRoll > 0 then\r\n        Timer.destroy(\"cleanupAfterRollTimer\")\r\n        Timer.create({\r\n            identifier=\"cleanupAfterRollTimer\", function_name=\"deleteCurrentDice\",\r\n            function_owner=self, delay=cleanupAfterRoll\r\n        })\r\n    end\r\n    return 1\r\nend\r\n\r\n--Used to delete dice from previous rolls\r\nfunction deleteCurrentDice()\r\n    for _, dieGUID in ipairs(diceActive) do\r\n        local die = getObjectFromGUID(dieGUID)\r\n        if die then\r\n            destroyObject(die)\r\n        end\r\n    end\r\n    diceActive = {}\r\n    watchingDice = false\r\nend\r\n\r\n--Obtains values for rolls and orders them\r\nfunction formatRollResults(color)\r\n    local rollResults = {}\r\n    for _, dieGUID in ipairs(diceActive) do\r\n        local die = getObjectFromGUID(dieGUID)\r\n        if die then\r\n            local value = die.getValue()\r\n            table.insert(rollResults, value)\r\n        end\r\n    end\r\n    if organizeRollResults == true then\r\n        local sort_func = function(a,b) return a < b end\r\n        table.sort(rollResults, sort_func)\r\n    end\r\n    convertRollResultsToString(color, rollResults)\r\nend\r\n\r\n--Converts the table of roll result numbers into a string and prints\r\nfunction convertRollResultsToString(color, rollResults)\r\n    local s = \"[b]\"..Player[color].steam_name .. \" a obtenu :[/b] \"\r\n    local addResults = 0\r\n    for i, result in ipairs(rollResults) do\r\n        addResults = addResults + result\r\n        if i < #rollResults then\r\n            s = s .. \"[ffffff]\" .. result..\"[-], \"\r\n        else\r\n            s = s .. \"[ffffff]\" .. result..\"[-] = \"\r\n        end\r\n    end\r\n    if addResults > 0 then\r\n        s = s .. \"[b][ffffff]\"..addResults..\"[-][/b]\"\r\n        broadcastToAll(s, stringColorToRGB(color))\r\n    end\r\nend\r\n\r\n--Get a radial position to place item\r\nfunction getRadialPosition(i, i_max, pos, rot)\r\n    local spokes = 360/i_max\r\n    local posX = pos.x + math.sin( math.rad((spokes*i)+rot.y) ) * radius\r\n    local posY = pos.y + height\r\n    local posZ = pos.z + math.cos( math.rad((spokes*i)+rot.y) ) * radius\r\n    return {x=posX, y=posY, z=posZ}\r\nend\r\n\r\n--Gets a random rotation vector\r\nfunction randomRotation()\r\n    --Credit for this function goes to Revinor (forums)\r\n    --Get 3 random numbers\r\n    local u1 = math.random();\r\n    local u2 = math.random();\r\n    local u3 = math.random();\r\n    --Convert them into quats to avoid gimbal lock\r\n    local u1sqrt = math.sqrt(u1);\r\n    local u1m1sqrt = math.sqrt(1-u1);\r\n    local qx = u1m1sqrt *math.sin(2*math.pi*u2);\r\n    local qy = u1m1sqrt *math.cos(2*math.pi*u2);\r\n    local qz = u1sqrt *math.sin(2*math.pi*u3);\r\n    local qw = u1sqrt *math.cos(2*math.pi*u3);\r\n    --Apply rotation\r\n    local ysqr = qy * qy;\r\n    local t0 = -2.0 * (ysqr + qz * qz) + 1.0;\r\n    local t1 = 2.0 * (qx * qy - qw * qz);\r\n    local t2 = -2.0 * (qx * qz + qw * qy);\r\n    local t3 = 2.0 * (qy * qz - qw * qx);\r\n    local t4 = -2.0 * (qx * qx + ysqr) + 1.0;\r\n    --Correct\r\n    if t2 > 1.0 then t2 = 1.0 end\r\n    if t2 < -1.0 then ts = -1.0 end\r\n    --Convert back to X/Y/Z\r\n    local xr = math.asin(t2);\r\n    local yr = math.atan2(t3, t4);\r\n    local zr = math.atan2(t1, t0);\r\n    --Return result\r\n    return {math.deg(xr),math.deg(yr),math.deg(zr)}\r\nend\r\n\r\n--Button creation\r\nfunction createButtons()\r\n    --Spawns number buttons and assigns a function trigger for each\r\n    for i, pos in ipairs(buttonPositionList) do\r\n        self.createButton({\r\n            click_function=\"but\"..i, function_owner=self,\r\n            position=pos, height=150, width=150\r\n        })\r\n        local func = function(_,color) numberButtonPressed(i, color) end\r\n        self.setVar(\"but\"..i, func)\r\n    end\r\n\r\n    --Spawns deleteCurrentDice button\r\n    self.createButton({\r\n        click_function=\"deleteCurrentDice\", function_owner=self,\r\n        position={0,0,0.73}, height=150, width=150\r\n    })\r\nend\r\n\r\n--Data table of positions for number buttons 1-9, in order\r\nbuttonPositionList = {\r\n    {-0.435,0,0.59}, {-0.693,0,0.22}, {-0.693,0,-0.22}, {-0.435,0,-0.59},\r\n    {0,0,-0.73}, {0.435,0,-0.59}, {0.693,0,-0.22}, {0.693,0,0.22}, {0.435,0,0.59}\r\n}\r\n",
      "LuaScriptState": "{\"da\":[],\"wd\":false}",
      "ContainedObjects": [
        {
          "Name": "Custom_Dice",
          "Transform": {
            "posX": -19.0495,
            "posY": 1.46000254,
            "posZ": -28.7815,
            "rotX": 3.927359E-05,
            "rotY": 61.7644043,
            "rotZ": 90.0,
            "scaleX": 1.0,
            "scaleY": 1.0,
            "scaleZ": 1.0
          },
          "Nickname": "Dé de mouvement",
          "Description": "",
          "GMNotes": "",
          "ColorDiffuse": {
            "r": 1.0,
            "g": 1.0,
            "b": 1.0
          },
          "Locked": false,
          "Grid": true,
          "Snap": false,
          "IgnoreFoW": false,
          "Autoraise": true,
          "Sticky": true,
          "Tooltip": true,
          "GridProjection": false,
          "HideWhenFaceDown": false,
          "Hands": false,
          "CustomImage": {
            "ImageURL": "http://cloud-3.steamusercontent.com/ugc/867368163168946636/1A2AD97502DFA3BE579D89827901238BD4B3F08E/",
            "ImageSecondaryURL": "",
            "ImageScalar": 1.0,
            "WidthScale": 0.0,
            "CustomDice": {
              "Type": 1
            }
          },
          "XmlUI": "",
          "LuaScript": "",
          "LuaScriptState": "",
          "GUID": "8013b1",
          "RotationValues": [
            {
              "Value": 1,
              "Rotation": {
                "x": -90.0,
                "y": 0.0,
                "z": 0.0
              }
            },
            {
              "Value": 2,
              "Rotation": {
                "x": 0.0,
                "y": 0.0,
                "z": 0.0
              }
            },
            {
              "Value": 3,
              "Rotation": {
                "x": 0.0,
                "y": 0.0,
                "z": -90.0
              }
            },
            {
              "Value": 4,
              "Rotation": {
                "x": 0.0,
                "y": 0.0,
                "z": 90.0
              }
            },
            {
              "Value": 5,
              "Rotation": {
                "x": 0.0,
                "y": 0.0,
                "z": -180.0
              }
            },
            {
              "Value": 6,
              "Rotation": {
                "x": 90.0,
                "y": 0.0,
                "z": 0.0
              }
            }
          ]
        }
      ],
      "GUID": "498aa9"
    }